module versioner

go 1.20

require github.com/jfrog/jfrog-client-go v1.35.6

require (
	dario.cat/mergo v1.0.0 // indirect
	github.com/CycloneDX/cyclonedx-go v0.7.2 // indirect
	github.com/Microsoft/go-winio v0.6.1 // indirect
	github.com/ProtonMail/go-crypto v0.0.0-20230923063757-afb1ddc0824c // indirect
	github.com/andybalholm/brotli v1.0.1 // indirect
	github.com/cloudflare/circl v1.3.3 // indirect
	github.com/cyphar/filepath-securejoin v0.2.4 // indirect
	github.com/dsnet/compress v0.0.2-0.20210315054119-f66993602bf5 // indirect
	github.com/emirpasic/gods v1.18.1 // indirect
	github.com/forPelevin/gomoji v1.1.8 // indirect
	github.com/go-git/gcfg v1.5.1-0.20230307220236-3a3c6141e376 // indirect
	github.com/go-git/go-billy/v5 v5.5.0 // indirect
	github.com/go-git/go-git/v5 v5.11.0 // indirect
	github.com/golang-jwt/jwt/v4 v4.5.0 // indirect
	github.com/golang/groupcache v0.0.0-20210331224755-41bb18bfe9da // indirect
	github.com/golang/snappy v0.0.2 // indirect
	github.com/gookit/color v1.5.4 // indirect
	github.com/jbenet/go-context v0.0.0-20150711004518-d14ea06fba99 // indirect
	github.com/jfrog/archiver/v3 v3.5.3 // indirect
	github.com/jfrog/build-info-go v1.9.20 // indirect
	github.com/jfrog/gofrog v1.4.1 // indirect
	github.com/kevinburke/ssh_config v1.2.0 // indirect
	github.com/klauspost/compress v1.11.4 // indirect
	github.com/klauspost/cpuid/v2 v2.2.3 // indirect
	github.com/klauspost/pgzip v1.2.5 // indirect
	github.com/minio/sha256-simd v1.0.1 // indirect
	github.com/nwaples/rardecode v1.1.0 // indirect
	github.com/pierrec/lz4/v4 v4.1.2 // indirect
	github.com/pjbgf/sha1cd v0.3.0 // indirect
	github.com/rivo/uniseg v0.4.3 // indirect
	github.com/sergi/go-diff v1.1.0 // indirect
	github.com/skeema/knownhosts v1.2.1 // indirect
	github.com/ulikunitz/xz v0.5.9 // indirect
	github.com/xanzy/ssh-agent v0.3.3 // indirect
	github.com/xi2/xz v0.0.0-20171230120015-48954b6210f8 // indirect
	github.com/xo/terminfo v0.0.0-20210125001918-ca9a967f8778 // indirect
	golang.org/x/crypto v0.17.0 // indirect
	golang.org/x/exp v0.0.0-20231214170342-aacd6d4b4611 // indirect
	golang.org/x/mod v0.14.0 // indirect
	golang.org/x/net v0.19.0 // indirect
	golang.org/x/sys v0.15.0 // indirect
	golang.org/x/term v0.15.0 // indirect
	golang.org/x/tools v0.16.0 // indirect
	gopkg.in/warnings.v0 v0.1.2 // indirect
)
